<?xml version="1.0" encoding="UTF-8" standalone="no"?>
<svg
   xmlns:dc="http://purl.org/dc/elements/1.1/"
   xmlns:cc="http://creativecommons.org/ns#"
   xmlns:rdf="http://www.w3.org/1999/02/22-rdf-syntax-ns#"
   xmlns:svg="http://www.w3.org/2000/svg"
   xmlns="http://www.w3.org/2000/svg"
   id="svg8"
   version="1.1"
   viewBox="0 0 210 297"
   height="297mm"
   width="210mm">
  <defs
     id="defs2">
    <marker
       id="DistanceX"
       orient="auto"
       refX="0.0"
       refY="0.0"
       style="overflow:visible">
      <path
         d="M 3,-3 L -3,3 M 0,-5 L  0,5"
         style="stroke:#000000; stroke-width:0.5"
         id="path4520" />
    </marker>
    <pattern
       height="8"
       id="Hatch"
       patternUnits="userSpaceOnUse"
       width="8"
       x="0"
       y="0">
      <path
         d="M8 4 l-4,4"
         linecap="square"
         stroke="#000000"
         stroke-width="0.25"
         id="path4523" />
      <path
         d="M6 2 l-4,4"
         linecap="square"
         stroke="#000000"
         stroke-width="0.25"
         id="path4525" />
      <path
         d="M4 0 l-4,4"
         linecap="square"
         stroke="#000000"
         stroke-width="0.25"
         id="path4527" />
    </pattern>
    <symbol
       id="*Model_Space" />
    <symbol
       id="*Paper_Space" />
    <symbol
       id="*Paper_Space0" />
  </defs>
  <metadata
     id="metadata5">
    <rdf:RDF>
      <cc:Work
         rdf:about="">
        <dc:format>image/svg+xml</dc:format>
        <dc:type
           rdf:resource="http://purl.org/dc/dcmitype/StillImage" />
        <dc:title></dc:title>
      </cc:Work>
    </rdf:RDF>
  </metadata>
  <g
     id="layer1">
    <g
       transform="matrix(0.26458333,0,0,0.26458333,110.36905,-160.31114)"
       id="g4699">
      <path
         d="m 56.215512,1386.7292 a 15.68504,15.68504 0 1 0 -31.370079,0 15.68504,15.68504 0 1 0 31.370079,0 z"
         style="fill:none;stroke:#000000;stroke-width:0.89999998;stroke-linecap:round"
         id="path4535" />
      <path
         d="m -113.86323,933.18586 a 15.685041,15.685041 0 1 0 -31.37008,0 15.685042,15.685042 0 1 0 31.37008,0 z"
         style="fill:none;stroke:#000000;stroke-width:0.89999998;stroke-linecap:round"
         id="path4537" />
      <path
         d="m -113.86323,876.49294 a 15.685041,15.685041 0 1 0 -31.37008,0 15.685042,15.685042 0 1 0 31.37008,0 z"
         style="fill:none;stroke:#000000;stroke-width:0.89999998;stroke-linecap:round"
         id="path4539" />
      <path
         d="m -170.55614,989.87877 a 15.68504,15.68504 0 1 0 -31.37008,0 15.68504,15.68504 0 1 0 31.37008,0 z"
         style="fill:none;stroke:#000000;stroke-width:0.89999998;stroke-linecap:round"
         id="path4541" />
      <path
         d="m -170.55614,933.18586 a 15.68504,15.68504 0 1 0 -31.37008,0 15.68504,15.68504 0 1 0 31.37008,0 z"
         style="fill:none;stroke:#000000;stroke-width:0.89999998;stroke-linecap:round"
         id="path4543" />
      <path
         d="m -170.55614,876.49294 a 15.68504,15.68504 0 1 0 -31.37008,0 15.68504,15.68504 0 1 0 31.37008,0 z"
         style="fill:none;stroke:#000000;stroke-width:0.89999998;stroke-linecap:round"
         id="path4545" />
      <path
         d="m -113.86323,1273.3434 a 15.685041,15.685041 0 1 0 -31.37008,0 15.685042,15.685042 0 1 0 31.37008,0 z"
         style="fill:none;stroke:#000000;stroke-width:0.89999998;stroke-linecap:round"
         id="path4547" />
      <path
         d="m -113.86323,1330.0363 a 15.685041,15.685041 0 1 0 -31.37008,0 15.685042,15.685042 0 1 0 31.37008,0 z"
         style="fill:none;stroke:#000000;stroke-width:0.89999998;stroke-linecap:round"
         id="path4549" />
      <path
         d="m -0.47740193,1046.5717 a 15.685039,15.685039 0 1 0 -31.37007807,0 15.685039,15.685039 0 1 0 31.37007807,0 z"
         style="fill:none;stroke:#000000;stroke-width:0.89999998;stroke-linecap:round"
         id="path4551" />
      <path
         d="m 112.90843,1216.6505 a 15.685041,15.685041 0 1 0 -31.370084,0 15.685041,15.685041 0 1 0 31.370084,0 z"
         style="fill:none;stroke:#000000;stroke-width:0.89999998;stroke-linecap:round"
         id="path4553" />
      <path
         d="m -0.47740193,1216.6505 a 15.685039,15.685039 0 1 0 -31.37007807,0 15.685039,15.685039 0 1 0 31.37007807,0 z"
         style="fill:none;stroke:#000000;stroke-width:0.89999998;stroke-linecap:round"
         id="path4555" />
      <path
         d="m -0.47740193,1159.9575 a 15.685039,15.685039 0 1 0 -31.37007807,0 15.685039,15.685039 0 1 0 31.37007807,0 z"
         style="fill:none;stroke:#000000;stroke-width:0.89999998;stroke-linecap:round"
         id="path4557" />
      <path
         d="m -0.47740193,1103.2646 a 15.685039,15.685039 0 1 0 -31.37007807,0 15.685039,15.685039 0 1 0 31.37007807,0 z"
         style="fill:none;stroke:#000000;stroke-width:0.89999998;stroke-linecap:round"
         id="path4559" />
      <path
         d="m 169.60134,1216.6505 a 15.68504,15.68504 0 1 0 -31.37008,0 15.68504,15.68504 0 1 0 31.37008,0 z"
         style="fill:none;stroke:#000000;stroke-width:0.89999998;stroke-linecap:round"
         id="path4561" />
      <path
         d="m -57.170315,1330.0363 a 15.68504,15.68504 0 1 0 -31.370079,0 15.68504,15.68504 0 1 0 31.370079,0 z"
         style="fill:none;stroke:#000000;stroke-width:0.89999998;stroke-linecap:round"
         id="path4563" />
      <path
         d="m 169.60134,1159.9575 a 15.68504,15.68504 0 1 0 -31.37008,0 15.68504,15.68504 0 1 0 31.37008,0 z"
         style="fill:none;stroke:#000000;stroke-width:0.89999998;stroke-linecap:round"
         id="path4565" />
      <path
         d="m -57.170315,1273.3434 a 15.68504,15.68504 0 1 0 -31.370079,0 15.68504,15.68504 0 1 0 31.370079,0 z"
         style="fill:none;stroke:#000000;stroke-width:0.89999998;stroke-linecap:round"
         id="path4567" />
      <path
         d="m -57.170315,1216.6505 a 15.68504,15.68504 0 1 0 -31.370079,0 15.68504,15.68504 0 1 0 31.370079,0 z"
         style="fill:none;stroke:#000000;stroke-width:0.89999998;stroke-linecap:round"
         id="path4569" />
      <path
         d="m -113.86323,1216.6505 a 15.685041,15.685041 0 1 0 -31.37008,0 15.685042,15.685042 0 1 0 31.37008,0 z"
         style="fill:none;stroke:#000000;stroke-width:0.89999998;stroke-linecap:round"
         id="path4571" />
      <path
         d="m -113.86323,1159.9575 a 15.685041,15.685041 0 1 0 -31.37008,0 15.685042,15.685042 0 1 0 31.37008,0 z"
         style="fill:none;stroke:#000000;stroke-width:0.89999998;stroke-linecap:round"
         id="path4573" />
      <path
         d="m -113.86323,1103.2646 a 15.685041,15.685041 0 1 0 -31.37008,0 15.685042,15.685042 0 1 0 31.37008,0 z"
         style="fill:none;stroke:#000000;stroke-width:0.89999998;stroke-linecap:round"
         id="path4575" />
      <path
         d="m -57.170315,1386.7292 a 15.68504,15.68504 0 1 0 -31.370079,0 15.68504,15.68504 0 1 0 31.370079,0 z"
         style="fill:none;stroke:#000000;stroke-width:0.89999998;stroke-linecap:round"
         id="path4577" />
      <path
         d="m 56.215512,1273.3434 a 15.68504,15.68504 0 1 0 -31.370079,0 15.68504,15.68504 0 1 0 31.370079,0 z"
         style="fill:none;stroke:#000000;stroke-width:0.89999998;stroke-linecap:round"
         id="path4579" />
      <path
         d="m 56.215512,1330.0363 a 15.68504,15.68504 0 1 0 -31.370079,0 15.68504,15.68504 0 1 0 31.370079,0 z"
         style="fill:none;stroke:#000000;stroke-width:0.89999998;stroke-linecap:round"
         id="path4581" />
      <path
         d="m 112.90843,1386.7292 a 15.685041,15.685041 0 1 0 -31.370084,0 15.685041,15.685041 0 1 0 31.370084,0 z"
         style="fill:none;stroke:#000000;stroke-width:0.89999998;stroke-linecap:round"
         id="path4583" />
      <path
         d="m 112.90843,1330.0363 a 15.685041,15.685041 0 1 0 -31.370084,0 15.685041,15.685041 0 1 0 31.370084,0 z"
         style="fill:none;stroke:#000000;stroke-width:0.89999998;stroke-linecap:round"
         id="path4585" />
      <path
         d="m 169.60134,1386.7292 a 15.68504,15.68504 0 1 0 -31.37008,0 15.68504,15.68504 0 1 0 31.37008,0 z"
         style="fill:none;stroke:#000000;stroke-width:0.89999998;stroke-linecap:round"
         id="path4587" />
      <path
         d="m 169.60134,1273.3434 a 15.68504,15.68504 0 1 0 -31.37008,0 15.68504,15.68504 0 1 0 31.37008,0 z"
         style="fill:none;stroke:#000000;stroke-width:0.89999998;stroke-linecap:round"
         id="path4589" />
      <path
         d="m 112.90843,1273.3434 a 15.685041,15.685041 0 1 0 -31.370084,0 15.685041,15.685041 0 1 0 31.370084,0 z"
         style="fill:none;stroke:#000000;stroke-width:0.89999998;stroke-linecap:round"
         id="path4591" />
      <path
         d="m 169.60134,1330.0363 a 15.68504,15.68504 0 1 0 -31.37008,0 15.68504,15.68504 0 1 0 31.37008,0 z"
         style="fill:none;stroke:#000000;stroke-width:0.89999998;stroke-linecap:round"
         id="path4593" />
      <path
         d="m 56.215512,1216.6505 a 15.68504,15.68504 0 1 0 -31.370079,0 15.68504,15.68504 0 1 0 31.370079,0 z"
         style="fill:none;stroke:#000000;stroke-width:0.89999998;stroke-linecap:round"
         id="path4595" />
      <path
         d="m 56.215512,1159.9575 a 15.68504,15.68504 0 1 0 -31.370079,0 15.68504,15.68504 0 1 0 31.370079,0 z"
         style="fill:none;stroke:#000000;stroke-width:0.89999998;stroke-linecap:round"
         id="path4597" />
      <path
         d="m 56.215512,1103.2646 a 15.68504,15.68504 0 1 0 -31.370079,0 15.68504,15.68504 0 1 0 31.370079,0 z"
         style="fill:none;stroke:#000000;stroke-width:0.89999998;stroke-linecap:round"
         id="path4599" />
      <path
         d="m 56.215512,1046.5717 a 15.68504,15.68504 0 1 0 -31.370079,0 15.68504,15.68504 0 1 0 31.370079,0 z"
         style="fill:none;stroke:#000000;stroke-width:0.89999998;stroke-linecap:round"
         id="path4601" />
      <path
         d="m -113.86323,1386.7292 a 15.685041,15.685041 0 1 0 -31.37008,0 15.685042,15.685042 0 1 0 31.37008,0 z"
         style="fill:none;stroke:#000000;stroke-width:0.89999998;stroke-linecap:round"
         id="path4603" />
      <path
         d="m -0.47740193,1386.7292 a 15.685039,15.685039 0 1 0 -31.37007807,0 15.685039,15.685039 0 1 0 31.37007807,0 z"
         style="fill:none;stroke:#000000;stroke-width:0.89999998;stroke-linecap:round"
         id="path4605" />
      <path
         d="m -0.47740193,1330.0363 a 15.685039,15.685039 0 1 0 -31.37007807,0 15.685039,15.685039 0 1 0 31.37007807,0 z"
         style="fill:none;stroke:#000000;stroke-width:0.89999998;stroke-linecap:round"
         id="path4607" />
      <path
         d="m -0.47740193,1273.3434 a 15.685039,15.685039 0 1 0 -31.37007807,0 15.685039,15.685039 0 1 0 31.37007807,0 z"
         style="fill:none;stroke:#000000;stroke-width:0.89999998;stroke-linecap:round"
         id="path4609" />
      <path
         d="m 112.90843,933.18586 a 15.685041,15.685041 0 1 0 -31.370084,0 15.685041,15.685041 0 1 0 31.370084,0 z"
         style="fill:none;stroke:#000000;stroke-width:0.89999998;stroke-linecap:round"
         id="path4611" />
      <path
         d="m 112.90843,989.87877 a 15.685041,15.685041 0 1 0 -31.370084,0 15.685041,15.685041 0 1 0 31.370084,0 z"
         style="fill:none;stroke:#000000;stroke-width:0.89999998;stroke-linecap:round"
         id="path4613" />
      <path
         d="m 169.60134,876.49294 a 15.68504,15.68504 0 1 0 -31.37008,0 15.68504,15.68504 0 1 0 31.37008,0 z"
         style="fill:none;stroke:#000000;stroke-width:0.89999998;stroke-linecap:round"
         id="path4615" />
      <path
         d="m -0.47740193,989.87877 a 15.685039,15.685039 0 1 0 -31.37007807,0 15.685039,15.685039 0 1 0 31.37007807,0 z"
         style="fill:none;stroke:#000000;stroke-width:0.89999998;stroke-linecap:round"
         id="path4617" />
      <path
         d="m 56.215512,876.49294 a 15.68504,15.68504 0 1 0 -31.370079,0 15.68504,15.68504 0 1 0 31.370079,0 z"
         style="fill:none;stroke:#000000;stroke-width:0.89999998;stroke-linecap:round"
         id="path4619" />
      <path
         d="m 56.215512,933.18586 a 15.68504,15.68504 0 1 0 -31.370079,0 15.68504,15.68504 0 1 0 31.370079,0 z"
         style="fill:none;stroke:#000000;stroke-width:0.89999998;stroke-linecap:round"
         id="path4621" />
      <path
         d="m 56.215512,989.87877 a 15.68504,15.68504 0 1 0 -31.370079,0 15.68504,15.68504 0 1 0 31.370079,0 z"
         style="fill:none;stroke:#000000;stroke-width:0.89999998;stroke-linecap:round"
         id="path4623" />
      <path
         d="m -0.47740193,876.49294 a 15.685039,15.685039 0 1 0 -31.37007807,0 15.685039,15.685039 0 1 0 31.37007807,0 z"
         style="fill:none;stroke:#000000;stroke-width:0.89999998;stroke-linecap:round"
         id="path4625" />
      <path
         d="m 112.90843,1046.5717 a 15.685041,15.685041 0 1 0 -31.370084,0 15.685041,15.685041 0 1 0 31.370084,0 z"
         style="fill:none;stroke:#000000;stroke-width:0.89999998;stroke-linecap:round"
         id="path4627" />
      <path
         d="m 169.60134,1046.5717 a 15.68504,15.68504 0 1 0 -31.37008,0 15.68504,15.68504 0 1 0 31.37008,0 z"
         style="fill:none;stroke:#000000;stroke-width:0.89999998;stroke-linecap:round"
         id="path4629" />
      <path
         d="m -0.47740193,933.18586 a 15.685039,15.685039 0 1 0 -31.37007807,0 15.685039,15.685039 0 1 0 31.37007807,0 z"
         style="fill:none;stroke:#000000;stroke-width:0.89999998;stroke-linecap:round"
         id="path4631" />
      <path
         d="m -113.86323,989.87877 a 15.685041,15.685041 0 1 0 -31.37008,0 15.685042,15.685042 0 1 0 31.37008,0 z"
         style="fill:none;stroke:#000000;stroke-width:0.89999998;stroke-linecap:round"
         id="path4633" />
      <path
         d="m -57.170315,876.49294 a 15.68504,15.68504 0 1 0 -31.370079,0 15.68504,15.68504 0 1 0 31.370079,0 z"
         style="fill:none;stroke:#000000;stroke-width:0.89999998;stroke-linecap:round"
         id="path4635" />
      <path
         d="m -57.170315,933.18586 a 15.68504,15.68504 0 1 0 -31.370079,0 15.68504,15.68504 0 1 0 31.370079,0 z"
         style="fill:none;stroke:#000000;stroke-width:0.89999998;stroke-linecap:round"
         id="path4637" />
      <path
         d="m -57.170315,989.87877 a 15.68504,15.68504 0 1 0 -31.370079,0 15.68504,15.68504 0 1 0 31.370079,0 z"
         style="fill:none;stroke:#000000;stroke-width:0.89999998;stroke-linecap:round"
         id="path4639" />
      <path
         d="m 112.90843,1159.9575 a 15.685041,15.685041 0 1 0 -31.370084,0 15.685041,15.685041 0 1 0 31.370084,0 z"
         style="fill:none;stroke:#000000;stroke-width:0.89999998;stroke-linecap:round"
         id="path4641" />
      <path
         d="m -57.170315,1159.9575 a 15.68504,15.68504 0 1 0 -31.370079,0 15.68504,15.68504 0 1 0 31.370079,0 z"
         style="fill:none;stroke:#000000;stroke-width:0.89999998;stroke-linecap:round"
         id="path4643" />
      <path
         d="m -57.170315,1103.2646 a 15.68504,15.68504 0 1 0 -31.370079,0 15.68504,15.68504 0 1 0 31.370079,0 z"
         style="fill:none;stroke:#000000;stroke-width:0.89999998;stroke-linecap:round"
         id="path4645" />
      <path
         d="m -57.170315,1046.5717 a 15.68504,15.68504 0 1 0 -31.370079,0 15.68504,15.68504 0 1 0 31.370079,0 z"
         style="fill:none;stroke:#000000;stroke-width:0.89999998;stroke-linecap:round"
         id="path4647" />
      <path
         d="m -170.55614,1273.3434 a 15.68504,15.68504 0 1 0 -31.37008,0 15.68504,15.68504 0 1 0 31.37008,0 z"
         style="fill:none;stroke:#000000;stroke-width:0.89999998;stroke-linecap:round"
         id="path4649" />
      <path
         d="m -170.55614,1330.0363 a 15.68504,15.68504 0 1 0 -31.37008,0 15.68504,15.68504 0 1 0 31.37008,0 z"
         style="fill:none;stroke:#000000;stroke-width:0.89999998;stroke-linecap:round"
         id="path4651" />
      <path
         d="m -170.55614,1386.7292 a 15.68504,15.68504 0 1 0 -31.37008,0 15.68504,15.68504 0 1 0 31.37008,0 z"
         style="fill:none;stroke:#000000;stroke-width:0.89999998;stroke-linecap:round"
         id="path4653" />
      <path
         d="m -113.86323,1046.5717 a 15.685041,15.685041 0 1 0 -31.37008,0 15.685042,15.685042 0 1 0 31.37008,0 z"
         style="fill:none;stroke:#000000;stroke-width:0.89999998;stroke-linecap:round"
         id="path4655" />
      <path
         d="m 169.60134,933.18586 a 15.68504,15.68504 0 1 0 -31.37008,0 15.68504,15.68504 0 1 0 31.37008,0 z"
         style="fill:none;stroke:#000000;stroke-width:0.89999998;stroke-linecap:round"
         id="path4657" />
      <path
         d="m 169.60134,989.87877 a 15.68504,15.68504 0 1 0 -31.37008,0 15.68504,15.68504 0 1 0 31.37008,0 z"
         style="fill:none;stroke:#000000;stroke-width:0.89999998;stroke-linecap:round"
         id="path4659" />
      <path
         d="m -170.55614,1046.5717 a 15.68504,15.68504 0 1 0 -31.37008,0 15.68504,15.68504 0 1 0 31.37008,0 z"
         style="fill:none;stroke:#000000;stroke-width:0.89999998;stroke-linecap:round"
         id="path4661" />
      <path
         d="m 112.90843,1103.2646 a 15.685041,15.685041 0 1 0 -31.370084,0 15.685041,15.685041 0 1 0 31.370084,0 z"
         style="fill:none;stroke:#000000;stroke-width:0.89999998;stroke-linecap:round"
         id="path4663" />
      <path
         d="m 169.60134,1103.2646 a 15.68504,15.68504 0 1 0 -31.37008,0 15.68504,15.68504 0 1 0 31.37008,0 z"
         style="fill:none;stroke:#000000;stroke-width:0.89999998;stroke-linecap:round"
         id="path4665" />
      <path
         d="m -170.55614,1103.2646 a 15.68504,15.68504 0 1 0 -31.37008,0 15.68504,15.68504 0 1 0 31.37008,0 z"
         style="fill:none;stroke:#000000;stroke-width:0.89999998;stroke-linecap:round"
         id="path4667" />
      <path
         d="m -170.55614,1159.9575 a 15.68504,15.68504 0 1 0 -31.37008,0 15.68504,15.68504 0 1 0 31.37008,0 z"
         style="fill:none;stroke:#000000;stroke-width:0.89999998;stroke-linecap:round"
         id="path4669" />
      <path
         d="m -170.55614,1216.6505 a 15.68504,15.68504 0 1 0 -31.37008,0 15.68504,15.68504 0 1 0 31.37008,0 z"
         style="fill:none;stroke:#000000;stroke-width:0.89999998;stroke-linecap:round"
         id="path4671" />
      <path
         d="m 112.90843,876.49294 a 15.685041,15.685041 0 1 0 -31.370084,0 15.685041,15.685041 0 1 0 31.370084,0 z"
         style="fill:none;stroke:#000000;stroke-width:0.89999998;stroke-linecap:round"
         id="path4673" />
      <path
         d="M -212.69787,1384.8394 V 878.38271"
         style="fill:none;stroke:#000000;stroke-width:0.89999998;stroke-linecap:round"
         id="path4675" />
      <path
         d="M 152.02654,1413.1859 H -184.35142"
         style="fill:none;stroke:#000000;stroke-width:0.89999998;stroke-linecap:round"
         id="path4677" />
      <path
         d="M 180.37299,878.38271 V 1384.8394"
         style="fill:none;stroke:#000000;stroke-width:0.89999998;stroke-linecap:round"
         id="path4679" />
      <path
         d="M -184.35142,850.03625 H 152.02654"
         style="fill:none;stroke:#000000;stroke-width:0.89999998;stroke-linecap:round"
         id="path4681" />
      <path
         d="m -184.35142,850.03625 a 28.346457,28.346457 0 0 0 -28.34645,28.34646"
         style="fill:none;stroke:#000000;stroke-width:0.89999998;stroke-linecap:round"
         id="path4683" />
      <path
         d="M 180.37299,878.38271 A 28.346457,28.346457 0 0 0 152.02654,850.03625"
         style="fill:none;stroke:#000000;stroke-width:0.89999998;stroke-linecap:round"
         id="path4685" />
      <path
         d="m 152.02654,1413.1859 a 28.346457,28.346457 0 0 0 28.34645,-28.3465"
         style="fill:none;stroke:#000000;stroke-width:0.89999998;stroke-linecap:round"
         id="path4687" />
      <path
         d="m -212.69787,1384.8394 a 28.346457,28.346457 0 0 0 28.34645,28.3465"
         style="fill:none;stroke:#000000;stroke-width:0.89999998;stroke-linecap:round"
         id="path4689" />
      <g
         style="fill:#000000;fill-opacity:1;stroke:none"
         transform="matrix(0.02613475,0,0,0.02613475,-175.50971,1340.8861)"
         id="layer101">
        <path
           style="fill:#000000;fill-opacity:1"
           d="M 155,1122 C 93,1101 70,1063 70,979 70,943 67,879 64,837 58,775 54,761 39,757 22,752 20,741 20,650 c 0,-91 2,-102 19,-107 20,-5 31,-55 31,-145 0,-27 7,-62 15,-78 28,-54 55,-60 254,-60 171,0 180,-1 186,-20 4,-12 15,-20 28,-20 57,0 67,-10 67,-60 0,-31 -5,-52 -16,-60 -19,-17 -15,-69 7,-83 9,-5 28,-7 42,-3 37,9 46,50 18,80 -15,16 -21,35 -21,69 v 46 l 45,7 c 29,4 49,13 56,25 9,18 24,19 187,19 191,0 210,4 246,53 16,22 21,46 24,126 4,84 7,100 22,104 14,4 19,20 25,90 7,88 -2,127 -29,127 -11,0 -15,31 -17,143 -4,117 -7,148 -22,171 -37,55 -45,56 -549,55 -255,-1 -472,-4 -483,-7 z m 955,-47 c 58,-30 60,-44 60,-382 0,-291 -1,-310 -20,-341 -38,-62 -43,-63 -528,-60 -419,3 -438,4 -464,23 -53,40 -53,41 -56,340 -4,334 -2,357 43,402 l 33,33 h 451 c 385,0 456,-2 481,-15 z"
           id="path5053" />
        <path
           style="fill:#000000;fill-opacity:1"
           d="m 434,675 c -15,-23 -15,-27 0,-50 29,-44 86,-28 86,25 0,53 -57,69 -86,25 z"
           id="path5055" />
        <path
           style="fill:#000000;fill-opacity:1"
           d="m 772,688 c -15,-15 -15,-61 0,-76 28,-28 88,-2 88,38 0,40 -60,66 -88,38 z"
           id="path5057" />
      </g>
    </g>
  </g>
</svg>
