<?xml version="1.0" encoding="UTF-8" standalone="no"?>
<svg
   xmlns:dc="http://purl.org/dc/elements/1.1/"
   xmlns:cc="http://creativecommons.org/ns#"
   xmlns:rdf="http://www.w3.org/1999/02/22-rdf-syntax-ns#"
   xmlns:svg="http://www.w3.org/2000/svg"
   xmlns="http://www.w3.org/2000/svg"
   id="svg4125"
   version="1.1"
   height="1122.51968504"
   width="793.700787402">
  <metadata
     id="metadata4129">
    <rdf:RDF>
      <cc:Work
         rdf:about="">
        <dc:format>image/svg+xml</dc:format>
        <dc:type
           rdf:resource="http://purl.org/dc/dcmitype/StillImage" />
        <dc:title></dc:title>
      </cc:Work>
    </rdf:RDF>
  </metadata>
  <desc
     id="desc3922">C:\Users\becto\Documents\Robox\Modular\MChassis.DXF - scale = 10.000000, origin = (0.000000, 0.000000), method = manual</desc>
  <defs
     id="defs3937">
    <marker
       style="overflow:visible"
       refY="0.0"
       refX="0.0"
       orient="auto"
       id="DistanceX">
      <path
         id="path3924"
         style="stroke:#000000; stroke-width:0.5"
         d="M 3,-3 L -3,3 M 0,-5 L  0,5" />
    </marker>
    <pattern
       y="0"
       x="0"
       width="8"
       patternUnits="userSpaceOnUse"
       id="Hatch"
       height="8">
      <path
         id="path3927"
         stroke-width="0.25"
         stroke="#000000"
         linecap="square"
         d="M8 4 l-4,4" />
      <path
         id="path3929"
         stroke-width="0.25"
         stroke="#000000"
         linecap="square"
         d="M6 2 l-4,4" />
      <path
         id="path3931"
         stroke-width="0.25"
         stroke="#000000"
         linecap="square"
         d="M4 0 l-4,4" />
    </pattern>
    <symbol
       id="*Model_Space" />
    <symbol
       id="*Paper_Space" />
    <symbol
       id="*Paper_Space0" />
  </defs>
  <g
     id="g4123">
    <g
       style="stroke:#3737f1;stroke-opacity:1"
       id="g4221">
      <path
         d="m 598.81488,844.9166 a 15.11811,15.11811 0 1 0 -30.23622,0 15.11811,15.11811 0 1 0 30.23622,0 z"
         style="fill:none;stroke:#3737f1;stroke-width:0.89999998;stroke-linecap:round;stroke-opacity:1"
         id="path3939" />
      <path
         d="m 542.12197,844.9166 a 15.118111,15.118111 0 1 0 -30.23622,0 15.118111,15.118111 0 1 0 30.23622,0 z"
         style="fill:none;stroke:#3737f1;stroke-width:0.89999998;stroke-linecap:round;stroke-opacity:1"
         id="path3941" />
      <path
         d="m 485.42906,844.9166 a 15.11811,15.11811 0 1 0 -30.23622,0 15.11811,15.11811 0 1 0 30.23622,0 z"
         style="fill:none;stroke:#3737f1;stroke-width:0.89999998;stroke-linecap:round;stroke-opacity:1"
         id="path3943" />
      <path
         d="m 428.73614,844.9166 a 15.118111,15.118111 0 1 0 -30.23622,0 15.118111,15.118111 0 1 0 30.23622,0 z"
         style="fill:none;stroke:#3737f1;stroke-width:0.89999998;stroke-linecap:round;stroke-opacity:1"
         id="path3945" />
      <path
         d="m 372.04323,844.9166 a 15.118111,15.118111 0 1 0 -30.23622,0 15.118111,15.118111 0 1 0 30.23622,0 z"
         style="fill:none;stroke:#3737f1;stroke-width:0.89999998;stroke-linecap:round;stroke-opacity:1"
         id="path3947" />
      <path
         d="m 315.35032,844.9166 a 15.11811,15.11811 0 1 0 -30.23622,0 15.11811,15.11811 0 1 0 30.23622,0 z"
         style="fill:none;stroke:#3737f1;stroke-width:0.89999998;stroke-linecap:round;stroke-opacity:1"
         id="path3949" />
      <path
         d="m 258.6574,844.9166 a 15.118111,15.118111 0 1 0 -30.23622,0 15.118111,15.118111 0 1 0 30.23622,0 z"
         style="fill:none;stroke:#3737f1;stroke-width:0.89999998;stroke-linecap:round;stroke-opacity:1"
         id="path3951" />
      <path
         d="m 201.96449,844.9166 a 15.11811,15.11811 0 1 0 -30.23622,0 15.11811,15.11811 0 1 0 30.23622,0 z"
         style="fill:none;stroke:#3737f1;stroke-width:0.89999998;stroke-linecap:round;stroke-opacity:1"
         id="path3953" />
      <path
         d="m 598.81488,788.22369 a 15.11811,15.11811 0 1 0 -30.23622,0 15.11811,15.11811 0 1 0 30.23622,0 z"
         style="fill:none;stroke:#3737f1;stroke-width:0.89999998;stroke-linecap:round;stroke-opacity:1"
         id="path3955" />
      <path
         d="m 542.12197,788.22369 a 15.118111,15.118111 0 1 0 -30.23622,0 15.118111,15.118111 0 1 0 30.23622,0 z"
         style="fill:none;stroke:#3737f1;stroke-width:0.89999998;stroke-linecap:round;stroke-opacity:1"
         id="path3957" />
      <path
         d="m 485.42906,788.22369 a 15.11811,15.11811 0 1 0 -30.23622,0 15.11811,15.11811 0 1 0 30.23622,0 z"
         style="fill:none;stroke:#3737f1;stroke-width:0.89999998;stroke-linecap:round;stroke-opacity:1"
         id="path3959" />
      <path
         d="m 428.73614,788.22369 a 15.118111,15.118111 0 1 0 -30.23622,0 15.118111,15.118111 0 1 0 30.23622,0 z"
         style="fill:none;stroke:#3737f1;stroke-width:0.89999998;stroke-linecap:round;stroke-opacity:1"
         id="path3961" />
      <path
         d="m 372.04323,788.22369 a 15.118111,15.118111 0 1 0 -30.23622,0 15.118111,15.118111 0 1 0 30.23622,0 z"
         style="fill:none;stroke:#3737f1;stroke-width:0.89999998;stroke-linecap:round;stroke-opacity:1"
         id="path3963" />
      <path
         d="m 315.35032,788.22369 a 15.11811,15.11811 0 1 0 -30.23622,0 15.11811,15.11811 0 1 0 30.23622,0 z"
         style="fill:none;stroke:#3737f1;stroke-width:0.89999998;stroke-linecap:round;stroke-opacity:1"
         id="path3965" />
      <path
         d="m 258.6574,788.22369 a 15.118111,15.118111 0 1 0 -30.23622,0 15.118111,15.118111 0 1 0 30.23622,0 z"
         style="fill:none;stroke:#3737f1;stroke-width:0.89999998;stroke-linecap:round;stroke-opacity:1"
         id="path3967" />
      <path
         d="m 201.96449,788.22369 a 15.11811,15.11811 0 1 0 -30.23622,0 15.11811,15.11811 0 1 0 30.23622,0 z"
         style="fill:none;stroke:#3737f1;stroke-width:0.89999998;stroke-linecap:round;stroke-opacity:1"
         id="path3969" />
      <path
         d="m 598.81488,731.53078 a 15.11811,15.11811 0 1 0 -30.23622,0 15.11811,15.11811 0 1 0 30.23622,0 z"
         style="fill:none;stroke:#3737f1;stroke-width:0.89999998;stroke-linecap:round;stroke-opacity:1"
         id="path3971" />
      <path
         d="m 542.12197,731.53078 a 15.118111,15.118111 0 1 0 -30.23622,0 15.118111,15.118111 0 1 0 30.23622,0 z"
         style="fill:none;stroke:#3737f1;stroke-width:0.89999998;stroke-linecap:round;stroke-opacity:1"
         id="path3973" />
      <path
         d="m 485.42906,731.53078 a 15.11811,15.11811 0 1 0 -30.23622,0 15.11811,15.11811 0 1 0 30.23622,0 z"
         style="fill:none;stroke:#3737f1;stroke-width:0.89999998;stroke-linecap:round;stroke-opacity:1"
         id="path3975" />
      <path
         d="m 428.73614,731.53078 a 15.118111,15.118111 0 1 0 -30.23622,0 15.118111,15.118111 0 1 0 30.23622,0 z"
         style="fill:none;stroke:#3737f1;stroke-width:0.89999998;stroke-linecap:round;stroke-opacity:1"
         id="path3977" />
      <path
         d="m 372.04323,731.53078 a 15.118111,15.118111 0 1 0 -30.23622,0 15.118111,15.118111 0 1 0 30.23622,0 z"
         style="fill:none;stroke:#3737f1;stroke-width:0.89999998;stroke-linecap:round;stroke-opacity:1"
         id="path3979" />
      <path
         d="m 315.35032,731.53078 a 15.11811,15.11811 0 1 0 -30.23622,0 15.11811,15.11811 0 1 0 30.23622,0 z"
         style="fill:none;stroke:#3737f1;stroke-width:0.89999998;stroke-linecap:round;stroke-opacity:1"
         id="path3981" />
      <path
         d="m 258.6574,731.53078 a 15.118111,15.118111 0 1 0 -30.23622,0 15.118111,15.118111 0 1 0 30.23622,0 z"
         style="fill:none;stroke:#3737f1;stroke-width:0.89999998;stroke-linecap:round;stroke-opacity:1"
         id="path3983" />
      <path
         d="m 201.96449,731.53078 a 15.11811,15.11811 0 1 0 -30.23622,0 15.11811,15.11811 0 1 0 30.23622,0 z"
         style="fill:none;stroke:#3737f1;stroke-width:0.89999998;stroke-linecap:round;stroke-opacity:1"
         id="path3985" />
      <path
         d="m 598.81488,674.83786 a 15.11811,15.11811 0 1 0 -30.23622,0 15.11811,15.11811 0 1 0 30.23622,0 z"
         style="fill:none;stroke:#3737f1;stroke-width:0.89999998;stroke-linecap:round;stroke-opacity:1"
         id="path3987" />
      <path
         d="m 542.12197,674.83786 a 15.118111,15.118111 0 1 0 -30.23622,0 15.118111,15.118111 0 1 0 30.23622,0 z"
         style="fill:none;stroke:#3737f1;stroke-width:0.89999998;stroke-linecap:round;stroke-opacity:1"
         id="path3989" />
      <path
         d="m 485.42906,674.83786 a 15.11811,15.11811 0 1 0 -30.23622,0 15.11811,15.11811 0 1 0 30.23622,0 z"
         style="fill:none;stroke:#3737f1;stroke-width:0.89999998;stroke-linecap:round;stroke-opacity:1"
         id="path3991" />
      <path
         d="m 428.73614,674.83786 a 15.118111,15.118111 0 1 0 -30.23622,0 15.118111,15.118111 0 1 0 30.23622,0 z"
         style="fill:none;stroke:#3737f1;stroke-width:0.89999998;stroke-linecap:round;stroke-opacity:1"
         id="path3993" />
      <path
         d="m 372.04323,674.83786 a 15.118111,15.118111 0 1 0 -30.23622,0 15.118111,15.118111 0 1 0 30.23622,0 z"
         style="fill:none;stroke:#3737f1;stroke-width:0.89999998;stroke-linecap:round;stroke-opacity:1"
         id="path3995" />
      <path
         d="m 315.35032,674.83786 a 15.11811,15.11811 0 1 0 -30.23622,0 15.11811,15.11811 0 1 0 30.23622,0 z"
         style="fill:none;stroke:#3737f1;stroke-width:0.89999998;stroke-linecap:round;stroke-opacity:1"
         id="path3997" />
      <path
         d="m 258.6574,674.83786 a 15.118111,15.118111 0 1 0 -30.23622,0 15.118111,15.118111 0 1 0 30.23622,0 z"
         style="fill:none;stroke:#3737f1;stroke-width:0.89999998;stroke-linecap:round;stroke-opacity:1"
         id="path3999" />
      <path
         d="m 201.96449,674.83786 a 15.11811,15.11811 0 1 0 -30.23622,0 15.11811,15.11811 0 1 0 30.23622,0 z"
         style="fill:none;stroke:#3737f1;stroke-width:0.89999998;stroke-linecap:round;stroke-opacity:1"
         id="path4001" />
      <path
         d="m 598.81488,618.14495 a 15.11811,15.11811 0 1 0 -30.23622,0 15.11811,15.11811 0 1 0 30.23622,0 z"
         style="fill:none;stroke:#3737f1;stroke-width:0.89999998;stroke-linecap:round;stroke-opacity:1"
         id="path4003" />
      <path
         d="m 542.12197,618.14495 a 15.118111,15.118111 0 1 0 -30.23622,0 15.118111,15.118111 0 1 0 30.23622,0 z"
         style="fill:none;stroke:#3737f1;stroke-width:0.89999998;stroke-linecap:round;stroke-opacity:1"
         id="path4005" />
      <path
         d="m 485.42906,618.14495 a 15.11811,15.11811 0 1 0 -30.23622,0 15.11811,15.11811 0 1 0 30.23622,0 z"
         style="fill:none;stroke:#3737f1;stroke-width:0.89999998;stroke-linecap:round;stroke-opacity:1"
         id="path4007" />
      <path
         d="m 428.73614,618.14495 a 15.118111,15.118111 0 1 0 -30.23622,0 15.118111,15.118111 0 1 0 30.23622,0 z"
         style="fill:none;stroke:#3737f1;stroke-width:0.89999998;stroke-linecap:round;stroke-opacity:1"
         id="path4009" />
      <path
         d="m 372.04323,618.14495 a 15.118111,15.118111 0 1 0 -30.23622,0 15.118111,15.118111 0 1 0 30.23622,0 z"
         style="fill:none;stroke:#3737f1;stroke-width:0.89999998;stroke-linecap:round;stroke-opacity:1"
         id="path4011" />
      <path
         d="m 315.35032,618.14495 a 15.11811,15.11811 0 1 0 -30.23622,0 15.11811,15.11811 0 1 0 30.23622,0 z"
         style="fill:none;stroke:#3737f1;stroke-width:0.89999998;stroke-linecap:round;stroke-opacity:1"
         id="path4013" />
      <path
         d="m 258.6574,618.14495 a 15.118111,15.118111 0 1 0 -30.23622,0 15.118111,15.118111 0 1 0 30.23622,0 z"
         style="fill:none;stroke:#3737f1;stroke-width:0.89999998;stroke-linecap:round;stroke-opacity:1"
         id="path4015" />
      <path
         d="m 201.96449,618.14495 a 15.11811,15.11811 0 1 0 -30.23622,0 15.11811,15.11811 0 1 0 30.23622,0 z"
         style="fill:none;stroke:#3737f1;stroke-width:0.89999998;stroke-linecap:round;stroke-opacity:1"
         id="path4017" />
      <path
         d="m 598.81488,561.45204 a 15.11811,15.11811 0 1 0 -30.23622,0 15.11811,15.11811 0 1 0 30.23622,0 z"
         style="fill:none;stroke:#3737f1;stroke-width:0.89999998;stroke-linecap:round;stroke-opacity:1"
         id="path4019" />
      <path
         d="m 542.12197,561.45204 a 15.118111,15.118111 0 1 0 -30.23622,0 15.118111,15.118111 0 1 0 30.23622,0 z"
         style="fill:none;stroke:#3737f1;stroke-width:0.89999998;stroke-linecap:round;stroke-opacity:1"
         id="path4021" />
      <path
         d="m 485.42906,561.45204 a 15.11811,15.11811 0 1 0 -30.23622,0 15.11811,15.11811 0 1 0 30.23622,0 z"
         style="fill:none;stroke:#3737f1;stroke-width:0.89999998;stroke-linecap:round;stroke-opacity:1"
         id="path4023" />
      <path
         d="m 428.73614,561.45204 a 15.118111,15.118111 0 1 0 -30.23622,0 15.118111,15.118111 0 1 0 30.23622,0 z"
         style="fill:none;stroke:#3737f1;stroke-width:0.89999998;stroke-linecap:round;stroke-opacity:1"
         id="path4025" />
      <path
         d="m 372.04323,561.45204 a 15.118111,15.118111 0 1 0 -30.23622,0 15.118111,15.118111 0 1 0 30.23622,0 z"
         style="fill:none;stroke:#3737f1;stroke-width:0.89999998;stroke-linecap:round;stroke-opacity:1"
         id="path4027" />
      <path
         d="m 315.35032,561.45204 a 15.11811,15.11811 0 1 0 -30.23622,0 15.11811,15.11811 0 1 0 30.23622,0 z"
         style="fill:none;stroke:#3737f1;stroke-width:0.89999998;stroke-linecap:round;stroke-opacity:1"
         id="path4029" />
      <path
         d="m 258.6574,561.45204 a 15.118111,15.118111 0 1 0 -30.23622,0 15.118111,15.118111 0 1 0 30.23622,0 z"
         style="fill:none;stroke:#3737f1;stroke-width:0.89999998;stroke-linecap:round;stroke-opacity:1"
         id="path4031" />
      <path
         d="m 201.96449,561.45204 a 15.11811,15.11811 0 1 0 -30.23622,0 15.11811,15.11811 0 1 0 30.23622,0 z"
         style="fill:none;stroke:#3737f1;stroke-width:0.89999998;stroke-linecap:round;stroke-opacity:1"
         id="path4033" />
      <path
         d="m 598.81488,504.75912 a 15.11811,15.11811 0 1 0 -30.23622,0 15.11811,15.11811 0 1 0 30.23622,0 z"
         style="fill:none;stroke:#3737f1;stroke-width:0.89999998;stroke-linecap:round;stroke-opacity:1"
         id="path4035" />
      <path
         d="m 542.12197,504.75912 a 15.118111,15.118111 0 1 0 -30.23622,0 15.118111,15.118111 0 1 0 30.23622,0 z"
         style="fill:none;stroke:#3737f1;stroke-width:0.89999998;stroke-linecap:round;stroke-opacity:1"
         id="path4037" />
      <path
         d="m 485.42906,504.75912 a 15.11811,15.11811 0 1 0 -30.23622,0 15.11811,15.11811 0 1 0 30.23622,0 z"
         style="fill:none;stroke:#3737f1;stroke-width:0.89999998;stroke-linecap:round;stroke-opacity:1"
         id="path4039" />
      <path
         d="m 428.73614,504.75912 a 15.118111,15.118111 0 1 0 -30.23622,0 15.118111,15.118111 0 1 0 30.23622,0 z"
         style="fill:none;stroke:#3737f1;stroke-width:0.89999998;stroke-linecap:round;stroke-opacity:1"
         id="path4041" />
      <path
         d="m 372.04323,504.75912 a 15.118111,15.118111 0 1 0 -30.23622,0 15.118111,15.118111 0 1 0 30.23622,0 z"
         style="fill:none;stroke:#3737f1;stroke-width:0.89999998;stroke-linecap:round;stroke-opacity:1"
         id="path4043" />
      <path
         d="m 315.35032,504.75912 a 15.11811,15.11811 0 1 0 -30.23622,0 15.11811,15.11811 0 1 0 30.23622,0 z"
         style="fill:none;stroke:#3737f1;stroke-width:0.89999998;stroke-linecap:round;stroke-opacity:1"
         id="path4045" />
      <path
         d="m 258.6574,504.75912 a 15.118111,15.118111 0 1 0 -30.23622,0 15.118111,15.118111 0 1 0 30.23622,0 z"
         style="fill:none;stroke:#3737f1;stroke-width:0.89999998;stroke-linecap:round;stroke-opacity:1"
         id="path4047" />
      <path
         d="m 201.96449,504.75912 a 15.11811,15.11811 0 1 0 -30.23622,0 15.11811,15.11811 0 1 0 30.23622,0 z"
         style="fill:none;stroke:#3737f1;stroke-width:0.89999998;stroke-linecap:round;stroke-opacity:1"
         id="path4049" />
      <path
         d="m 598.81488,448.06621 a 15.11811,15.11811 0 1 0 -30.23622,0 15.11811,15.11811 0 1 0 30.23622,0 z"
         style="fill:none;stroke:#3737f1;stroke-width:0.89999998;stroke-linecap:round;stroke-opacity:1"
         id="path4051" />
      <path
         d="m 542.12197,448.06621 a 15.118111,15.118111 0 1 0 -30.23622,0 15.118111,15.118111 0 1 0 30.23622,0 z"
         style="fill:none;stroke:#3737f1;stroke-width:0.89999998;stroke-linecap:round;stroke-opacity:1"
         id="path4053" />
      <path
         d="m 485.42906,448.06621 a 15.11811,15.11811 0 1 0 -30.23622,0 15.11811,15.11811 0 1 0 30.23622,0 z"
         style="fill:none;stroke:#3737f1;stroke-width:0.89999998;stroke-linecap:round;stroke-opacity:1"
         id="path4055" />
      <path
         d="m 428.73614,448.06621 a 15.118111,15.118111 0 1 0 -30.23622,0 15.118111,15.118111 0 1 0 30.23622,0 z"
         style="fill:none;stroke:#3737f1;stroke-width:0.89999998;stroke-linecap:round;stroke-opacity:1"
         id="path4057" />
      <path
         d="m 372.04323,448.06621 a 15.118111,15.118111 0 1 0 -30.23622,0 15.118111,15.118111 0 1 0 30.23622,0 z"
         style="fill:none;stroke:#3737f1;stroke-width:0.89999998;stroke-linecap:round;stroke-opacity:1"
         id="path4059" />
      <path
         d="m 315.35032,448.06621 a 15.11811,15.11811 0 1 0 -30.23622,0 15.11811,15.11811 0 1 0 30.23622,0 z"
         style="fill:none;stroke:#3737f1;stroke-width:0.89999998;stroke-linecap:round;stroke-opacity:1"
         id="path4061" />
      <path
         d="m 258.6574,448.06621 a 15.118111,15.118111 0 1 0 -30.23622,0 15.118111,15.118111 0 1 0 30.23622,0 z"
         style="fill:none;stroke:#3737f1;stroke-width:0.89999998;stroke-linecap:round;stroke-opacity:1"
         id="path4063" />
      <path
         d="m 201.96449,448.06621 a 15.11811,15.11811 0 1 0 -30.23622,0 15.11811,15.11811 0 1 0 30.23622,0 z"
         style="fill:none;stroke:#3737f1;stroke-width:0.89999998;stroke-linecap:round;stroke-opacity:1"
         id="path4065" />
      <path
         d="m 598.81488,391.3733 a 15.11811,15.11811 0 1 0 -30.23622,0 15.11811,15.11811 0 1 0 30.23622,0 z"
         style="fill:none;stroke:#3737f1;stroke-width:0.89999998;stroke-linecap:round;stroke-opacity:1"
         id="path4067" />
      <path
         d="m 542.12197,391.3733 a 15.118111,15.118111 0 1 0 -30.23622,0 15.118111,15.118111 0 1 0 30.23622,0 z"
         style="fill:none;stroke:#3737f1;stroke-width:0.89999998;stroke-linecap:round;stroke-opacity:1"
         id="path4069" />
      <path
         d="m 485.42906,391.3733 a 15.11811,15.11811 0 1 0 -30.23622,0 15.11811,15.11811 0 1 0 30.23622,0 z"
         style="fill:none;stroke:#3737f1;stroke-width:0.89999998;stroke-linecap:round;stroke-opacity:1"
         id="path4071" />
      <path
         d="m 428.73614,391.3733 a 15.118111,15.118111 0 1 0 -30.23622,0 15.118111,15.118111 0 1 0 30.23622,0 z"
         style="fill:none;stroke:#3737f1;stroke-width:0.89999998;stroke-linecap:round;stroke-opacity:1"
         id="path4073" />
      <path
         d="m 372.04323,391.3733 a 15.118111,15.118111 0 1 0 -30.23622,0 15.118111,15.118111 0 1 0 30.23622,0 z"
         style="fill:none;stroke:#3737f1;stroke-width:0.89999998;stroke-linecap:round;stroke-opacity:1"
         id="path4075" />
      <path
         d="m 315.35032,391.3733 a 15.11811,15.11811 0 1 0 -30.23622,0 15.11811,15.11811 0 1 0 30.23622,0 z"
         style="fill:none;stroke:#3737f1;stroke-width:0.89999998;stroke-linecap:round;stroke-opacity:1"
         id="path4077" />
      <path
         d="m 258.6574,391.3733 a 15.118111,15.118111 0 1 0 -30.23622,0 15.118111,15.118111 0 1 0 30.23622,0 z"
         style="fill:none;stroke:#3737f1;stroke-width:0.89999998;stroke-linecap:round;stroke-opacity:1"
         id="path4079" />
      <path
         d="m 201.96449,391.3733 a 15.11811,15.11811 0 1 0 -30.23622,0 15.11811,15.11811 0 1 0 30.23622,0 z"
         style="fill:none;stroke:#3737f1;stroke-width:0.89999998;stroke-linecap:round;stroke-opacity:1"
         id="path4081" />
      <path
         d="m 598.81488,334.68038 a 15.11811,15.11811 0 1 0 -30.23622,0 15.11811,15.11811 0 1 0 30.23622,0 z"
         style="fill:none;stroke:#3737f1;stroke-width:0.89999998;stroke-linecap:round;stroke-opacity:1"
         id="path4083" />
      <path
         d="m 542.12197,334.68038 a 15.118111,15.118111 0 1 0 -30.23622,0 15.118111,15.118111 0 1 0 30.23622,0 z"
         style="fill:none;stroke:#3737f1;stroke-width:0.89999998;stroke-linecap:round;stroke-opacity:1"
         id="path4085" />
      <path
         d="m 485.42906,334.68038 a 15.11811,15.11811 0 1 0 -30.23622,0 15.11811,15.11811 0 1 0 30.23622,0 z"
         style="fill:none;stroke:#3737f1;stroke-width:0.89999998;stroke-linecap:round;stroke-opacity:1"
         id="path4087" />
      <path
         d="m 428.73614,334.68038 a 15.118111,15.118111 0 1 0 -30.23622,0 15.118111,15.118111 0 1 0 30.23622,0 z"
         style="fill:none;stroke:#3737f1;stroke-width:0.89999998;stroke-linecap:round;stroke-opacity:1"
         id="path4089" />
      <path
         d="m 372.04323,334.68038 a 15.118111,15.118111 0 1 0 -30.23622,0 15.118111,15.118111 0 1 0 30.23622,0 z"
         style="fill:none;stroke:#3737f1;stroke-width:0.89999998;stroke-linecap:round;stroke-opacity:1"
         id="path4091" />
      <path
         d="m 315.35032,334.68038 a 15.11811,15.11811 0 1 0 -30.23622,0 15.11811,15.11811 0 1 0 30.23622,0 z"
         style="fill:none;stroke:#3737f1;stroke-width:0.89999998;stroke-linecap:round;stroke-opacity:1"
         id="path4093" />
      <path
         d="m 258.6574,334.68038 a 15.118111,15.118111 0 1 0 -30.23622,0 15.118111,15.118111 0 1 0 30.23622,0 z"
         style="fill:none;stroke:#3737f1;stroke-width:0.89999998;stroke-linecap:round;stroke-opacity:1"
         id="path4095" />
      <path
         d="m 201.96449,334.68038 a 15.11811,15.11811 0 1 0 -30.23622,0 15.11811,15.11811 0 1 0 30.23622,0 z"
         style="fill:none;stroke:#3737f1;stroke-width:0.89999998;stroke-linecap:round;stroke-opacity:1"
         id="path4097" />
    </g>
    <g
       style="stroke:#ff0000;stroke-opacity:1"
       id="g4139">
      <path
         d="M 621.49205,863.81424 V 315.78275"
         style="fill:none;stroke:#ff0000;stroke-width:0.89999998;stroke-linecap:round;stroke-opacity:1"
         id="path4099" />
      <path
         d="M 167.94874,882.71188 H 602.59441"
         style="fill:none;stroke:#ff0000;stroke-width:0.89999998;stroke-linecap:round;stroke-opacity:1"
         id="path4101" />
      <path
         d="M 149.0511,315.78275 V 863.81424"
         style="fill:none;stroke:#ff0000;stroke-width:0.89999998;stroke-linecap:round;stroke-opacity:1"
         id="path4103" />
      <path
         d="M 602.59441,296.88511 H 167.94874"
         style="fill:none;stroke:#ff0000;stroke-width:0.89999998;stroke-linecap:round;stroke-opacity:1"
         id="path4105" />
      <path
         d="m 602.59441,882.71188 a 18.897638,18.897638 0 0 0 18.89764,-18.89764"
         style="fill:none;stroke:#ff0000;stroke-width:0.89999998;stroke-linecap:round;stroke-opacity:1"
         id="path4107" />
      <path
         d="m 149.0511,863.81424 a 18.897638,18.897638 0 0 0 18.89764,18.89764"
         style="fill:none;stroke:#ff0000;stroke-width:0.89999998;stroke-linecap:round;stroke-opacity:1"
         id="path4109" />
      <path
         d="M 167.94874,296.88511 A 18.897638,18.897638 0 0 0 149.0511,315.78275"
         style="fill:none;stroke:#ff0000;stroke-width:0.89999998;stroke-linecap:round;stroke-opacity:1"
         id="path4111" />
      <path
         d="M 621.49205,315.78275 A 18.897638,18.897638 0 0 0 602.59441,296.88511"
         style="fill:none;stroke:#ff0000;stroke-width:0.89999998;stroke-linecap:round;stroke-opacity:1"
         id="path4113" />
    </g>
  </g>
</svg>
